{
    "notes": { 
        "label": "Notes de cours",
        "title": "Notes de cours",
        "description": "Des liens vers chaque page de notes de cours de ce site."
    },
    "labs": { 
        "label": "Laboratoires",
        "title": "Laboratoires",
        "description": "Des liens vers chaque page de laboratoires de ce site."
    },
    "ress": { 
        "label": "Ressources",
        "title": "Ressources externes",
        "description": "Des liens vers chaque ressource externe utilisée sur ce site.",
        "noIndex": true
    },
    "template": { 
        "label": "Gabarits",
        "title": "Gabarits",
        "description": "Gabarits de projets vides permettant de rapidement commencer la programmation d'un serveur."
    }
}